#     mass     R_mu^F
 1.7090e+00  0.0000e+00
 1.7095e+00  1.2658e-04
 1.7100e+00  1.4284e-03
 1.7105e+00  2.7476e-03
 1.7110e+00  4.0817e-03
 1.7115e+00  5.4327e-03
 1.7120e+00  6.7977e-03
 1.7125e+00  8.1788e-03
 1.7130e+00  9.5742e-03
 1.7135e+00  1.0984e-02
 1.7140e+00  1.2407e-02
 1.7145e+00  1.3846e-02
 1.7150e+00  1.5298e-02
 1.7155e+00  1.6762e-02
 1.7160e+00  1.8240e-02
 1.7165e+00  1.9731e-02
 1.7170e+00  2.1234e-02
 1.7175e+00  2.2749e-02
 1.7180e+00  2.4277e-02
 1.7185e+00  2.5815e-02
 1.7190e+00  2.7365e-02
 1.7195e+00  2.8926e-02
 1.7200e+00  3.0498e-02
 1.7205e+00  3.2080e-02
 1.7210e+00  3.3672e-02
 1.7215e+00  3.5274e-02
 1.7220e+00  3.6885e-02
 1.7225e+00  3.8505e-02
 1.7230e+00  4.0134e-02
 1.7235e+00  4.1772e-02
 1.7240e+00  4.3417e-02
 1.7245e+00  4.5072e-02
 1.7250e+00  4.6733e-02
 1.7255e+00  4.8401e-02
 1.7260e+00  5.0075e-02
 1.7265e+00  5.1757e-02
 1.7270e+00  5.3445e-02
 1.7275e+00  5.5139e-02
 1.7280e+00  5.6838e-02
 1.7285e+00  5.8542e-02
 1.7290e+00  6.0251e-02
 1.7295e+00  6.1964e-02
 1.7300e+00  6.3681e-02
 1.7305e+00  6.5403e-02
 1.7310e+00  6.7126e-02
 1.7315e+00  6.8854e-02
 1.7320e+00  7.0584e-02
 1.7325e+00  7.2317e-02
 1.7330e+00  7.4052e-02
 1.7335e+00  7.5787e-02
 1.7340e+00  7.7525e-02
 1.7345e+00  7.9263e-02
 1.7350e+00  8.1001e-02
 1.7355e+00  8.2740e-02
 1.7360e+00  8.4478e-02
 1.7365e+00  8.6216e-02
 1.7370e+00  8.7952e-02
 1.7375e+00  8.9687e-02
 1.7380e+00  9.1420e-02
 1.7385e+00  9.3151e-02
 1.7390e+00  9.4878e-02
 1.7395e+00  9.6602e-02
 1.7400e+00  9.8322e-02
 1.7405e+00  1.0004e-01
 1.7410e+00  1.0175e-01
 1.7415e+00  1.0345e-01
 1.7420e+00  1.0515e-01
 1.7425e+00  1.0683e-01
 1.7430e+00  1.0852e-01
 1.7435e+00  1.1019e-01
 1.7440e+00  1.1185e-01
 1.7445e+00  1.1350e-01
 1.7450e+00  1.1514e-01
 1.7455e+00  1.1677e-01
 1.7460e+00  1.1839e-01
 1.7465e+00  1.2000e-01
 1.7470e+00  1.2159e-01
 1.7475e+00  1.2317e-01
 1.7480e+00  1.2473e-01
 1.7485e+00  1.2628e-01
 1.7490e+00  1.2781e-01
 1.7495e+00  1.2933e-01
 1.7500e+00  1.3083e-01
 1.7505e+00  1.3231e-01
 1.7510e+00  1.3378e-01
 1.7515e+00  1.3522e-01
 1.7520e+00  1.3665e-01
 1.7525e+00  1.3806e-01
 1.7530e+00  1.3946e-01
 1.7535e+00  1.4084e-01
 1.7540e+00  1.4220e-01
 1.7545e+00  1.4354e-01
 1.7550e+00  1.4486e-01
 1.7555e+00  1.4617e-01
 1.7560e+00  1.4746e-01
 1.7565e+00  1.4874e-01
 1.7570e+00  1.5000e-01
 1.7575e+00  1.5124e-01
 1.7580e+00  1.5247e-01
 1.7585e+00  1.5368e-01
 1.7590e+00  1.5487e-01
 1.7595e+00  1.5605e-01
 1.7600e+00  1.5721e-01
 1.7605e+00  1.5835e-01
 1.7610e+00  1.5949e-01
 1.7615e+00  1.6060e-01
 1.7620e+00  1.6170e-01
 1.7625e+00  1.6278e-01
 1.7630e+00  1.6385e-01
 1.7635e+00  1.6490e-01
 1.7640e+00  1.6594e-01
 1.7645e+00  1.6697e-01
 1.7650e+00  1.6798e-01
 1.7655e+00  1.6897e-01
 1.7660e+00  1.6995e-01
 1.7665e+00  1.7092e-01
 1.7670e+00  1.7187e-01
 1.7675e+00  1.7281e-01
 1.7680e+00  1.7374e-01
 1.7685e+00  1.7465e-01
 1.7690e+00  1.7555e-01
 1.7695e+00  1.7644e-01
 1.7700e+00  1.7731e-01
 1.7705e+00  1.7817e-01
 1.7710e+00  1.7902e-01
 1.7715e+00  1.7985e-01
 1.7720e+00  1.8068e-01
 1.7725e+00  1.8149e-01
 1.7730e+00  1.8229e-01
 1.7735e+00  1.8308e-01
 1.7740e+00  1.8385e-01
 1.7745e+00  1.8462e-01
 1.7750e+00  1.8538e-01
 1.7755e+00  1.8612e-01
 1.7760e+00  1.8685e-01
 1.7765e+00  1.8758e-01
 1.7770e+00  1.8829e-01
 1.7775e+00  1.8900e-01
 1.7780e+00  1.8969e-01
 1.7785e+00  1.9037e-01
 1.7790e+00  1.9105e-01
 1.7795e+00  1.9172e-01
 1.7800e+00  1.9237e-01
 1.7805e+00  1.9302e-01
 1.7810e+00  1.9366e-01
 1.7815e+00  1.9429e-01
 1.7820e+00  1.9492e-01
 1.7825e+00  1.9554e-01
 1.7830e+00  1.9615e-01
 1.7835e+00  1.9675e-01
 1.7840e+00  1.9734e-01
 1.7845e+00  1.9793e-01
 1.7850e+00  1.9851e-01
 1.7855e+00  1.9909e-01
 1.7860e+00  1.9966e-01
 1.7865e+00  2.0022e-01
 1.7870e+00  2.0078e-01
 1.7875e+00  2.0133e-01
 1.7880e+00  2.0188e-01
 1.7885e+00  2.0242e-01
 1.7890e+00  2.0296e-01
 1.7895e+00  2.0349e-01
 1.7900e+00  2.0402e-01
 1.7905e+00  2.0455e-01
 1.7910e+00  2.0507e-01
 1.7915e+00  2.0559e-01
 1.7920e+00  2.0611e-01
 1.7925e+00  2.0663e-01
 1.7930e+00  2.0714e-01
 1.7935e+00  2.0765e-01
 1.7940e+00  2.0816e-01
 1.7945e+00  2.0867e-01
 1.7950e+00  2.0918e-01
 1.7955e+00  2.0969e-01
 1.7960e+00  2.1020e-01
 1.7965e+00  2.1071e-01
 1.7970e+00  2.1122e-01
 1.7975e+00  2.1173e-01
 1.7980e+00  2.1225e-01
 1.7985e+00  2.1276e-01
 1.7990e+00  2.1328e-01
 1.7995e+00  2.1380e-01
 1.8000e+00  2.1432e-01
 1.8005e+00  2.1485e-01
 1.8010e+00  2.1537e-01
 1.8015e+00  2.1590e-01
 1.8020e+00  2.1644e-01
 1.8025e+00  2.1697e-01
 1.8030e+00  2.1751e-01
 1.8035e+00  2.1805e-01
 1.8040e+00  2.1859e-01
 1.8045e+00  2.1914e-01
 1.8050e+00  2.1969e-01
 1.8055e+00  2.2024e-01
 1.8060e+00  2.2079e-01
 1.8065e+00  2.2134e-01
 1.8070e+00  2.2189e-01
 1.8075e+00  2.2245e-01
 1.8080e+00  2.2300e-01
 1.8085e+00  2.2356e-01
 1.8090e+00  2.2412e-01
 1.8095e+00  2.2468e-01
 1.8100e+00  2.2524e-01
 1.8105e+00  2.2580e-01
 1.8110e+00  2.2636e-01
 1.8115e+00  2.2692e-01
 1.8120e+00  2.2749e-01
 1.8125e+00  2.2805e-01
 1.8130e+00  2.2861e-01
 1.8135e+00  2.2917e-01
 1.8140e+00  2.2974e-01
 1.8145e+00  2.3030e-01
 1.8150e+00  2.3086e-01
 1.8155e+00  2.3142e-01
 1.8160e+00  2.3198e-01
 1.8165e+00  2.3254e-01
 1.8170e+00  2.3310e-01
 1.8175e+00  2.3366e-01
 1.8180e+00  2.3421e-01
 1.8185e+00  2.3477e-01
 1.8190e+00  2.3532e-01
 1.8195e+00  2.3587e-01
 1.8200e+00  2.3642e-01
 1.8205e+00  2.3697e-01
 1.8210e+00  2.3752e-01
 1.8215e+00  2.3806e-01
 1.8220e+00  2.3860e-01
 1.8225e+00  2.3914e-01
 1.8230e+00  2.3968e-01
 1.8235e+00  2.4022e-01
 1.8240e+00  2.4075e-01
 1.8245e+00  2.4128e-01
 1.8250e+00  2.4180e-01
 1.8255e+00  2.4233e-01
 1.8260e+00  2.4285e-01
 1.8265e+00  2.4336e-01
 1.8270e+00  2.4387e-01
 1.8275e+00  2.4438e-01
 1.8280e+00  2.4489e-01
 1.8285e+00  2.4539e-01
 1.8290e+00  2.4589e-01
 1.8295e+00  2.4638e-01
 1.8300e+00  2.4687e-01
 1.8305e+00  2.4736e-01
 1.8310e+00  2.4784e-01
 1.8315e+00  2.4831e-01
 1.8320e+00  2.4878e-01
 1.8325e+00  2.4925e-01
 1.8330e+00  2.4971e-01
 1.8335e+00  2.5017e-01
 1.8340e+00  2.5062e-01
 1.8345e+00  2.5106e-01
 1.8350e+00  2.5150e-01
 1.8355e+00  2.5194e-01
 1.8360e+00  2.5237e-01
 1.8365e+00  2.5279e-01
 1.8370e+00  2.5321e-01
 1.8375e+00  2.5362e-01
 1.8380e+00  2.5403e-01
 1.8385e+00  2.5443e-01
 1.8390e+00  2.5482e-01
 1.8395e+00  2.5520e-01
 1.8400e+00  2.5558e-01
 1.8405e+00  2.5596e-01
 1.8410e+00  2.5632e-01
 1.8415e+00  2.5668e-01
 1.8420e+00  2.5703e-01
 1.8425e+00  2.5737e-01
 1.8430e+00  2.5771e-01
 1.8435e+00  2.5804e-01
 1.8440e+00  2.5836e-01
 1.8445e+00  2.5867e-01
 1.8450e+00  2.5897e-01
 1.8455e+00  2.5926e-01
 1.8460e+00  2.5955e-01
 1.8465e+00  2.5983e-01
 1.8470e+00  2.6009e-01
 1.8475e+00  2.6035e-01
 1.8480e+00  2.6060e-01
 1.8485e+00  2.6083e-01
 1.8490e+00  2.6106e-01
 1.8495e+00  2.6128e-01
 1.8500e+00  2.6149e-01
 1.8505e+00  2.6169e-01
 1.8510e+00  2.6187e-01
 1.8515e+00  2.6205e-01
 1.8520e+00  2.6222e-01
 1.8525e+00  2.6237e-01
 1.8530e+00  2.6252e-01
 1.8535e+00  2.6266e-01
 1.8540e+00  2.6279e-01
 1.8545e+00  2.6290e-01
 1.8550e+00  2.6301e-01
 1.8555e+00  2.6312e-01
 1.8560e+00  2.6321e-01
 1.8565e+00  2.6329e-01
 1.8570e+00  2.6336e-01
 1.8575e+00  2.6343e-01
 1.8580e+00  2.6349e-01
 1.8585e+00  2.6354e-01
 1.8590e+00  2.6358e-01
 1.8595e+00  2.6361e-01
 1.8600e+00  2.6364e-01
 1.8605e+00  2.6366e-01
 1.8610e+00  2.6367e-01
 1.8615e+00  2.6367e-01
 1.8620e+00  2.6367e-01
 1.8625e+00  2.6366e-01
 1.8630e+00  2.6364e-01
 1.8635e+00  2.6362e-01
 1.8640e+00  2.6359e-01
 1.8645e+00  2.6355e-01
 1.8650e+00  2.6351e-01
 1.8655e+00  2.6346e-01
 1.8660e+00  2.6340e-01
 1.8665e+00  2.6334e-01
 1.8670e+00  2.6328e-01
 1.8675e+00  2.6321e-01
 1.8680e+00  2.6313e-01
 1.8685e+00  2.6305e-01
 1.8690e+00  2.6296e-01
 1.8695e+00  2.6287e-01
 1.8700e+00  2.6277e-01
 1.8705e+00  2.6267e-01
 1.8710e+00  2.6256e-01
 1.8715e+00  2.6245e-01
 1.8720e+00  2.6234e-01
 1.8725e+00  2.6222e-01
 1.8730e+00  2.6210e-01
 1.8735e+00  2.6197e-01
 1.8740e+00  2.6184e-01
 1.8745e+00  2.6171e-01
 1.8750e+00  2.6158e-01
 1.8755e+00  2.6144e-01
 1.8760e+00  2.6130e-01
 1.8765e+00  2.6115e-01
 1.8770e+00  2.6100e-01
 1.8775e+00  2.6085e-01
 1.8780e+00  2.6070e-01
 1.8785e+00  2.6055e-01
 1.8790e+00  2.6039e-01
 1.8795e+00  2.6024e-01
 1.8800e+00  2.6008e-01
 1.8805e+00  2.5991e-01
 1.8810e+00  2.5975e-01
 1.8815e+00  2.5959e-01
 1.8820e+00  2.5942e-01
 1.8825e+00  2.5926e-01
 1.8830e+00  2.5909e-01
 1.8835e+00  2.5893e-01
 1.8840e+00  2.5876e-01
 1.8845e+00  2.5859e-01
 1.8850e+00  2.5842e-01
 1.8855e+00  2.5826e-01
 1.8860e+00  2.5809e-01
 1.8865e+00  2.5792e-01
 1.8870e+00  2.5775e-01
 1.8875e+00  2.5759e-01
 1.8880e+00  2.5742e-01
 1.8885e+00  2.5726e-01
 1.8890e+00  2.5709e-01
 1.8895e+00  2.5693e-01
 1.8900e+00  2.5677e-01
 1.8905e+00  2.5661e-01
 1.8910e+00  2.5646e-01
 1.8915e+00  2.5630e-01
 1.8920e+00  2.5615e-01
 1.8925e+00  2.5600e-01
 1.8930e+00  2.5585e-01
 1.8935e+00  2.5570e-01
 1.8940e+00  2.5556e-01
 1.8945e+00  2.5542e-01
 1.8950e+00  2.5528e-01
 1.8955e+00  2.5515e-01
 1.8960e+00  2.5501e-01
 1.8965e+00  2.5489e-01
 1.8970e+00  2.5476e-01
 1.8975e+00  2.5464e-01
 1.8980e+00  2.5453e-01
 1.8985e+00  2.5441e-01
 1.8990e+00  2.5431e-01
 1.8995e+00  2.5420e-01
 1.9000e+00  2.5410e-01
 1.9005e+00  2.5401e-01
 1.9010e+00  2.5392e-01
 1.9015e+00  2.5384e-01
 1.9020e+00  2.5376e-01
 1.9025e+00  2.5368e-01
 1.9030e+00  2.5361e-01
 1.9035e+00  2.5354e-01
 1.9040e+00  2.5348e-01
 1.9045e+00  2.5342e-01
 1.9050e+00  2.5337e-01
 1.9055e+00  2.5332e-01
 1.9060e+00  2.5328e-01
 1.9065e+00  2.5324e-01
 1.9070e+00  2.5321e-01
 1.9075e+00  2.5317e-01
 1.9080e+00  2.5315e-01
 1.9085e+00  2.5313e-01
 1.9090e+00  2.5311e-01
 1.9095e+00  2.5309e-01
 1.9100e+00  2.5308e-01
 1.9105e+00  2.5308e-01
 1.9110e+00  2.5308e-01
 1.9115e+00  2.5308e-01
 1.9120e+00  2.5309e-01
 1.9125e+00  2.5310e-01
 1.9130e+00  2.5311e-01
 1.9135e+00  2.5313e-01
 1.9140e+00  2.5315e-01
 1.9145e+00  2.5318e-01
 1.9150e+00  2.5321e-01
 1.9155e+00  2.5324e-01
 1.9160e+00  2.5328e-01
 1.9165e+00  2.5332e-01
 1.9170e+00  2.5337e-01
 1.9175e+00  2.5342e-01
 1.9180e+00  2.5347e-01
 1.9185e+00  2.5353e-01
 1.9190e+00  2.5359e-01
 1.9195e+00  2.5365e-01
 1.9200e+00  2.5372e-01
 1.9205e+00  2.5379e-01
 1.9210e+00  2.5386e-01
 1.9215e+00  2.5394e-01
 1.9220e+00  2.5402e-01
 1.9225e+00  2.5410e-01
 1.9230e+00  2.5419e-01
 1.9235e+00  2.5428e-01
 1.9240e+00  2.5437e-01
 1.9245e+00  2.5447e-01
 1.9250e+00  2.5457e-01
 1.9255e+00  2.5467e-01
 1.9260e+00  2.5478e-01
 1.9265e+00  2.5489e-01
 1.9270e+00  2.5500e-01
 1.9275e+00  2.5512e-01
 1.9280e+00  2.5524e-01
 1.9285e+00  2.5536e-01
 1.9290e+00  2.5548e-01
 1.9295e+00  2.5561e-01
 1.9300e+00  2.5574e-01
 1.9305e+00  2.5587e-01
 1.9310e+00  2.5601e-01
 1.9315e+00  2.5614e-01
 1.9320e+00  2.5629e-01
 1.9325e+00  2.5643e-01
 1.9330e+00  2.5657e-01
 1.9335e+00  2.5672e-01
 1.9340e+00  2.5687e-01
 1.9345e+00  2.5703e-01
 1.9350e+00  2.5719e-01
 1.9355e+00  2.5734e-01
 1.9360e+00  2.5750e-01
 1.9365e+00  2.5767e-01
 1.9370e+00  2.5783e-01
 1.9375e+00  2.5800e-01
 1.9380e+00  2.5817e-01
 1.9385e+00  2.5835e-01
 1.9390e+00  2.5852e-01
 1.9395e+00  2.5870e-01
 1.9400e+00  2.5888e-01
 1.9405e+00  2.5906e-01
 1.9410e+00  2.5924e-01
 1.9415e+00  2.5943e-01
 1.9420e+00  2.5961e-01
 1.9425e+00  2.5980e-01
 1.9430e+00  2.5999e-01
 1.9435e+00  2.6019e-01
 1.9440e+00  2.6038e-01
 1.9445e+00  2.6058e-01
 1.9450e+00  2.6078e-01
 1.9455e+00  2.6098e-01
 1.9460e+00  2.6118e-01
 1.9465e+00  2.6138e-01
 1.9470e+00  2.6159e-01
 1.9475e+00  2.6180e-01
 1.9480e+00  2.6200e-01
 1.9485e+00  2.6222e-01
 1.9490e+00  2.6243e-01
 1.9495e+00  2.6264e-01
 1.9500e+00  2.6285e-01
 1.9505e+00  2.6307e-01
 1.9510e+00  2.6329e-01
 1.9515e+00  2.6350e-01
 1.9520e+00  2.6372e-01
 1.9525e+00  2.6394e-01
 1.9530e+00  2.6417e-01
 1.9535e+00  2.6439e-01
 1.9540e+00  2.6461e-01
 1.9545e+00  2.6484e-01
 1.9550e+00  2.6506e-01
 1.9555e+00  2.6529e-01
 1.9560e+00  2.6552e-01
 1.9565e+00  2.6575e-01
 1.9570e+00  2.6597e-01
 1.9575e+00  2.6620e-01
 1.9580e+00  2.6643e-01
 1.9585e+00  2.6666e-01
 1.9590e+00  2.6689e-01
 1.9595e+00  2.6712e-01
 1.9600e+00  2.6736e-01
 1.9605e+00  2.6759e-01
 1.9610e+00  2.6782e-01
 1.9615e+00  2.6805e-01
 1.9620e+00  2.6828e-01
 1.9625e+00  2.6852e-01
 1.9630e+00  2.6875e-01
 1.9635e+00  2.6898e-01
 1.9640e+00  2.6921e-01
 1.9645e+00  2.6944e-01
 1.9650e+00  2.6967e-01
 1.9655e+00  2.6991e-01
 1.9660e+00  2.7014e-01
 1.9665e+00  2.7037e-01
 1.9670e+00  2.7060e-01
 1.9675e+00  2.7083e-01
 1.9680e+00  2.7105e-01
 1.9685e+00  2.7128e-01
 1.9690e+00  2.7151e-01
 1.9695e+00  2.7174e-01
 1.9700e+00  2.7196e-01
 1.9705e+00  2.7219e-01
 1.9710e+00  2.7241e-01
 1.9715e+00  2.7263e-01
 1.9720e+00  2.7286e-01
 1.9725e+00  2.7308e-01
 1.9730e+00  2.7330e-01
 1.9735e+00  2.7351e-01
 1.9740e+00  2.7373e-01
 1.9745e+00  2.7395e-01
 1.9750e+00  2.7416e-01
 1.9755e+00  2.7437e-01
 1.9760e+00  2.7459e-01
 1.9765e+00  2.7480e-01
 1.9770e+00  2.7500e-01
 1.9775e+00  2.7521e-01
 1.9780e+00  2.7542e-01
 1.9785e+00  2.7562e-01
 1.9790e+00  2.7582e-01
 1.9795e+00  2.7602e-01
 1.9800e+00  2.7622e-01
 1.9805e+00  2.7641e-01
 1.9810e+00  2.7660e-01
 1.9815e+00  2.7679e-01
 1.9820e+00  2.7698e-01
 1.9825e+00  2.7717e-01
 1.9830e+00  2.7735e-01
 1.9835e+00  2.7754e-01
 1.9840e+00  2.7771e-01
 1.9845e+00  2.7789e-01
 1.9850e+00  2.7807e-01
 1.9855e+00  2.7824e-01
 1.9860e+00  2.7841e-01
 1.9865e+00  2.7857e-01
 1.9870e+00  2.7873e-01
 1.9875e+00  2.7889e-01
 1.9880e+00  2.7905e-01
 1.9885e+00  2.7921e-01
 1.9890e+00  2.7936e-01
 1.9895e+00  2.7951e-01
 1.9900e+00  2.7965e-01
 1.9905e+00  2.7979e-01
 1.9910e+00  2.7993e-01
 1.9915e+00  2.8007e-01
 1.9920e+00  2.8020e-01
 1.9925e+00  2.8033e-01
 1.9930e+00  2.8045e-01
 1.9935e+00  2.8057e-01
 1.9940e+00  2.8069e-01
 1.9945e+00  2.8080e-01
 1.9950e+00  2.8091e-01
 1.9955e+00  2.8102e-01
 1.9960e+00  2.8112e-01
 1.9965e+00  2.8122e-01
 1.9970e+00  2.8132e-01
 1.9975e+00  2.8141e-01
 1.9980e+00  2.8149e-01
 1.9985e+00  2.8157e-01
 1.9990e+00  2.8165e-01
 1.9995e+00  2.8173e-01
 2.0000e+00  2.8179e-01
